%YAML 1.1
%TAG !u! tag:unity3d.com,2011:
--- !u!114 &11400000
MonoBehaviour:
  m_ObjectHideFlags: 0
  m_CorrespondingSourceObject: {fileID: 0}
  m_PrefabInstance: {fileID: 0}
  m_PrefabAsset: {fileID: 0}
  m_GameObject: {fileID: 0}
  m_Enabled: 1
  m_EditorHideFlags: 0
  m_Script: {fileID: 11500000, guid: 3863570e7e6387a40ae4f323d83291e5, type: 3}
  m_Name: OculusRuntimeSettings
  m_EditorClassIdentifier: 
  colorSpace: 7
  requestsVisualFaceTracking: 1
  requestsAudioFaceTracking: 1
  telemetryProjectGuid: 8cb2961d-72d1-4ba0-9714-3b7da7418223
  bodyTrackingFidelity: 1
  bodyTrackingJointSet: 0
